{
	"MATERIAL": [
		{
			"Name": "Cappotto 01.P09.A01",
			"Roughness": "Rough",
			"Thickness": 0.01,
			"Conductivity": 0.038,
			"Density": 16,
			"Specific Heat": 900,
			"Thermal Absorptance": 0.9,
			"Solar Absorptance": 0.6,
			"Visible Absorptance": 0.6
		},
		{
			"Name": "Cappotto 01.P09.A04",
			"Roughness": "Rough",
			"Thickness": 0.01,
			"Conductivity": 0.033,
			"Density": 24,
			"Specific Heat": 1400,
			"Thermal Absorptance": 0.9,
			"Solar Absorptance": 0.6,
			"Visible Absorptance": 0.6
		},
		{
			"Name": "Cappotto 01.P09.B02",
			"Roughness": "Rough",
			"Thickness": 0.01,
			"Conductivity": 0.034,
			"Density": 20,
			"Specific Heat": 1000,
			"Thermal Absorptance": 0.9,
			"Solar Absorptance": 0.6,
			"Visible Absorptance": 0.6
		},
		{
			"Name": "Cappotto 01.P09.B12",
			"Roughness": "Rough",
			"Thickness": 0.01,
			"Conductivity": 0.033,
			"Density": 75,
			"Specific Heat": 840,
			"Thermal Absorptance": 0.9,
			"Solar Absorptance": 0.6,
			"Visible Absorptance": 0.6
		},
		{
			"Name": "Sottotetto 01.P09.A25",
			"Roughness": "Rough",
			"Thickness": 0.01,
			"Conductivity": 0.038,
			"Density": 16,
			"Specific Heat": 900,
			"Thermal Absorptance": 0.9,
			"Solar Absorptance": 0.6,
			"Visible Absorptance": 0.6
		},
		{
			"Name": "Sottotetto 01.P09.A52",
			"Roughness": "Rough",
			"Thickness": 0.01,
			"Conductivity": 0.032,
			"Density": 24,
			"Specific Heat": 1400,
			"Thermal Absorptance": 0.9,
			"Solar Absorptance": 0.6,
			"Visible Absorptance": 0.6
		},
		{
			"Name": "Sottotetto 01.P09.B08",
			"Roughness": "Rough",
			"Thickness": 0.01,
			"Conductivity": 0.034,
			"Density": 20,
			"Specific Heat": 1000,
			"Thermal Absorptance": 0.9,
			"Solar Absorptance": 0.6,
			"Visible Absorptance": 0.6
		},
		{
			"Name": "Sottotetto 01.P09.C10",
			"Roughness": "Rough",
			"Thickness": 0.01,
			"Conductivity": 0.033,
			"Density": 75,
			"Specific Heat": 840,
			"Thermal Absorptance": 0.9,
			"Solar Absorptance": 0.6,
			"Visible Absorptance": 0.6
		},
		{
			"Name": "Seminterrato 01.P09.A53",
			"Roughness": "Rough",
			"Thickness": 0.01,
			"Conductivity": 0.033,
			"Density": 32,
			"Specific Heat": 1450,
			"Thermal Absorptance": 0.9,
			"Solar Absorptance": 0.6,
			"Visible Absorptance": 0.6
		},
		{
			"Name": "Seminterrato 03.P09.H06",
			"Roughness": "Rough",
			"Thickness": 0.01,
			"Conductivity": 0.039,
			"Density": 180,
			"Specific Heat": 1900,
			"Thermal Absorptance": 0.9,
			"Solar Absorptance": 0.6,
			"Visible Absorptance": 0.6
		},
		{
			"Name": "air gap 60 mm",
			"Roughness": "Rough",
			"Resistance": 0.182,
			"Thermal Absorptance": 0.9,
			"Solar Absorptance": 0.5,
			"Visible Absorptance": 0.5
		},
		{
			"Name": "MW Glass Wool (rolls)",
			"Roughness": "Rough",
			"Thickness": 0.0119,
			"Conductivity": 0.04,
			"Density": 12,
			"Specific Heat": 840,
			"Thermal Absorptance": 0.9,
			"Solar Absorptance": 0.6,
			"Visible Absorptance": 0.6
		},
		{
			"Name": "EPS Expanded Polystyrene (Standard)",
			"Roughness": "Rough",
			"Thickness": 0.05,
			"Conductivity": 0.04,
			"Density": 15,
			"Specific Heat": 1400,
			"Thermal Absorptance": 0.9,
			"Solar Absorptance": 0.6,
			"Visible Absorptance": 0.6
		},
		{
			"Name": "XPS Extruded Polystyrene CO2 Blowing",
			"Roughness": "Rough",
			"Thickness": 0.041,
			"Conductivity": 0.034,
			"Density": 35,
			"Specific Heat": 1400,
			"Thermal Absorptance": 0.9,
			"Solar Absorptance": 0.6,
			"Visible Absorptance": 0.6
		},
		{
			"Name": "extruded polystyrene panel XPS 35 kg/m3 15 mm",
			"Roughness": "Rough",
			"Thickness": 0.015,
			"Conductivity": 0.04,
			"Density": 35,
			"Specific Heat": 1450,
			"Thermal Absorptance": 0.9,
			"Solar Absorptance": 0.6,
			"Visible Absorptance": 0.6
		},
		{
			"Name": "test",
			"Roughness": "Rough",
			"Thickness": 0.008,
			"Conductivity": 0.04,
			"Density": 35,
			"Specific Heat": 1450,
			"Thermal Absorptance": 0.9,
			"Solar Absorptance": 0.6,
			"Visible Absorptance": 0.6
		},
		{
			"Name": "extruded polystyrene panel XPS 35 kg/m3 5 mm",
			"Roughness": "Rough",
			"Thickness": 0.005,
			"Conductivity": 0.04,
			"Density": 35,
			"Specific Heat": 1450,
			"Thermal Absorptance": 0.9,
			"Solar Absorptance": 0.6,
			"Visible Absorptance": 0.6
		},
		{
			"Name": "EPS Expanded Polystyrene (Standard)_.O5",
			"Roughness": "Rough",
			"Thickness": 0.05,
			"Conductivity": 0.04,
			"Density": 15,
			"Specific Heat": 1400,
			"Thermal Absorptance": 0.9,
			"Solar Absorptance": 0.6,
			"Visible Absorptance": 0.6
		},
		{
			"Name": "plaster lime and gypsum 10 mm",
			"Roughness": "Rough",
			"Thickness": 0.01,
			"Conductivity": 0.7,
			"Density": 1400,
			"Specific Heat": 840,
			"Thermal Absorptance": 0.9,
			"Solar Absorptance": 0.5,
			"Visible Absorptance": 0.5
		},
		{
			"Name": "Gypsum Plastering",
			"Roughness": "Rough",
			"Thickness": 0.013,
			"Conductivity": 0.4,
			"Density": 1000,
			"Specific Heat": 1000,
			"Thermal Absorptance": 0.9,
			"Solar Absorptance": 0.5,
			"Visible Absorptance": 0.5
		},
		{
			"Name": "plaster lime and gypsum 15 mm",
			"Roughness": "Rough",
			"Thickness": 0.015,
			"Conductivity": 0.7,
			"Density": 1400,
			"Specific Heat": 840,
			"Thermal Absorptance": 0.9,
			"Solar Absorptance": 0.5,
			"Visible Absorptance": 0.5
		}
	],
	"WINDOWMATERIAL:GAS": [
		{
			"Name": "window air 12 mm",
			"Gas Type": "air",
			"Thickness": 0.012
		},
		{
			"Name": "argon 13 mm",
			"Gas Type": "Argon",
			"Thickness": 0.013
		}
	],
	"WINDOWMATERIAL:GASMIXTURE": [
		{
			"Name": "ArgonKryptonMix",
			"Thickness": 0.0125,
			"Number of Gases in Mixture": 2,
			"Gas 1 Type": "Argon",
			"Gas 1 Fraction": 0.6,
			"Gas 2 Type": "Krypton",
			"Gas 2 Fraction": 0.4
		}
	],
	"WINDOWMATERIAL:GLAZING": [
		{
			"Name": "2",
			"Optical Data Type": "SpectralAverage",
			"Window Glass Spectral Data Set Name": "",
			"Thickness": 0.003
		},
		{
			"Name": "38",
			"Optical Data Type": "SpectralAverage",
			"Window Glass Spectral Data Set Name": "",
			"Thickness": 0.003
		},
		{
			"Name": "glass 2",
			"Optical Data Type": "SpectralAverage",
			"Window Glass Spectral Data Set Name": "",
			"Thickness": 0.003,
			"Solar Transmittance at Normal Incidence": 0.837,
			"Front Side Solar Reflectance at Normal Incidence": 0.075,
			"Back Side Solar Reflectance at Normal Incidence": 0.075,
			"Visible Transmittance at Normal Incidence": 0.898,
			"Front Side Visible Reflectance at Normal Incidence": 0.081,
			"Back Side Visible Reflectance at Normal Incidence": 0.081,
			"Infrared Transmittance at Normal Incidence": 0,
			"Front Side Infrared Hemispherical Emissivity": 0.84,
			"Back Side Infrared Hemispherical Emissivity": 0.84,
			"Conductivity": 0.9,
			"Dirt Correction Factor for Solar and Visible Transmittance": 1
		},
		{
			"Name": "glass 40",
			"Optical Data Type": "SpectralAverage",
			"Window Glass Spectral Data Set Name": "",
			"Thickness": 0.003,
			"Solar Transmittance at Normal Incidence": 0.630,
			"Front Side Solar Reflectance at Normal Incidence": 0.0190,
			"Back Side Solar Reflectance at Normal Incidence": 0.220,
			"Visible Transmittance at Normal Incidence": 0.850,
			"Front Side Visible Reflectance at Normal Incidence": 0.056,
			"Back Side Visible Reflectance at Normal Incidence": 0.079,
			"Infrared Transmittance at Normal Incidence": 0,
			"Front Side Infrared Hemispherical Emissivity": 0.84,
			"Back Side Infrared Hemispherical Emissivity": 0.10,
			"Conductivity": 0.9,
			"Dirt Correction Factor for Solar and Visible Transmittance": 1
		},
		{
			"Name": "glass 41",
			"Optical Data Type": "SpectralAverage",
			"Window Glass Spectral Data Set Name": "",
			"Thickness": 0.003,
			"Solar Transmittance at Normal Incidence": 0.630,
			"Front Side Solar Reflectance at Normal Incidence": 0.220,
			"Back Side Solar Reflectance at Normal Incidence": 0.190,
			"Visible Transmittance at Normal Incidence": 0.850,
			"Front Side Visible Reflectance at Normal Incidence": 0.079,
			"Back Side Visible Reflectance at Normal Incidence": 0.056,
			"Infrared Transmittance at Normal Incidence": 0,
			"Front Side Infrared Hemispherical Emissivity": 0.10,
			"Back Side Infrared Hemispherical Emissivity": 0.84,
			"Conductivity": 0.9,
			"Dirt Correction Factor for Solar and Visible Transmittance": 1
		},
		{
			"Name": "glass 3",
			"Optical Data Type": "SpectralAverage",
			"Window Glass Spectral Data Set Name": "",
			"Thickness": 0.006,
			"Solar Transmittance at Normal Incidence": 0.775,
			"Front Side Solar Reflectance at Normal Incidence": 0.071,
			"Back Side Solar Reflectance at Normal Incidence": 0.071,
			"Visible Transmittance at Normal Incidence": 0.881,
			"Front Side Visible Reflectance at Normal Incidence": 0.080,
			"Back Side Visible Reflectance at Normal Incidence": 0.080,
			"Infrared Transmittance at Normal Incidence": 0,
			"Front Side Infrared Hemispherical Emissivity": 0.84,
			"Back Side Infrared Hemispherical Emissivity": 0.84,
			"Conductivity": 0.9,
			"Dirt Correction Factor for Solar and Visible Transmittance": 1
		},
		{
			"Name": "glass 42",
			"Optical Data Type": "SpectralAverage",
			"Window Glass Spectral Data Set Name": "",
			"Thickness": 0.006,
			"Solar Transmittance at Normal Incidence": 0.600,
			"Front Side Solar Reflectance at Normal Incidence": 0.17,
			"Back Side Solar Reflectance at Normal Incidence": 0.22,
			"Visible Transmittance at Normal Incidence": 0.84,
			"Front Side Visible Reflectance at Normal Incidence": 0.055,
			"Back Side Visible Reflectance at Normal Incidence": 0.078,
			"Infrared Transmittance at Normal Incidence": 0,
			"Front Side Infrared Hemispherical Emissivity": 0.84,
			"Back Side Infrared Hemispherical Emissivity": 0.10,
			"Conductivity": 0.9,
			"Dirt Correction Factor for Solar and Visible Transmittance": 1
		}
	],
	"WINDOWMATERIAL:SIMPLEGLAZINGSYSTEM": [
		{
			"Name": "TPM 1",
			"UFactor": 1,
			"Solar Heat Gain Coefficient": 0.42,
			"Visible Transmittance": 0.66
		},
		{
			"Name": "TPM 2",
			"UFactor": 0.6,
			"Solar Heat Gain Coefficient": 0.3,
			"Visible Transmittance": 0.5
		},
		{
			"Name": "TPM 3",
			"UFactor": 1,
			"Solar Heat Gain Coefficient": 0.42,
			"Visible Transmittance": 0.66
		},
		{
			"Name": "TPM 4",
			"UFactor": 0.6,
			"Solar Heat Gain Coefficient": 0.3,
			"Visible Transmittance": 0.5
		},
		{
			"Name": "Torino 1",
			"UFactor": 1,
			"Solar Heat Gain Coefficient": 0.42,
			"Visible Transmittance": 0.66
		},
		{
			"Name": "Torino 2",
			"UFactor": 0.6,
			"Solar Heat Gain Coefficient": 0.3,
			"Visible Transmittance": 0.5
		},
		{
			"Name": "Simplified glazing",
			"UFactor": 1.96,
			"Solar Heat Gain Coefficient": 0.691,
			"Visible Transmittance": 0.744
		},
		{
			"Name": "enea_simplified_glazing",
			"UFactor": 2.513,
			"Solar Heat Gain Coefficient": 0.0382,
			"Visible Transmittance": 0.688
		}
	],
	"CONSTRUCTION": [
		{
			"Name": "double glazing",
			"Outside Layer": "glass 3",
			"Layer 2": "argon 13 mm",
			"Layer 3": "glass 42"
		},
		{
			"Name": "double glazing argon",
			"Outside Layer": "glass 3",
			"Layer 2": "argon 13 mm",
			"Layer 3": "glass 42"
		},
		{
			"Name": "double glazing argon-krypton",
			"Outside Layer": "glass 3",
			"Layer 2": "ArgonKryptonMix",
			"Layer 3": "glass 42"
		},
		{
			"Name": "triple glazing air",
			"Outside Layer": "glass 40",
			"Layer 2": "window air 12 mm",
			"Layer 3": "glass 2",
			"Layer 4": "window air 12 mm",
			"Layer 5": "glass 41"
		},
		{
			"Name": "Simplified window system",
			"Outside Layer": "Simplified glazing"
		},
		{
			"Name": "Simplified window system ENEA",
			"Outside Layer": "enea_simplified_glazing"
		},
		{
			"Name": "LinearBridgingConstruction",
			"Outside Layer": "LinearBridgingLayer"
		},
		{
			"Name": "1001",
			"Outside Layer": "38",
			"Layer 2": "1002",
			"Layer 3": "2"
		},
		{
			"Name": "1002",
			"Outside Layer": "glass 4 mm"
		},
		{
			"Name": "wall in concrete blocks 300 mm with external polystyrene 100 mm",
			"Outside Layer": "plaster plastic for insulation 10 mm",
			"Layer 2": "expanded polystyrene sheets 20 kg/m3 100 mm",
			"Layer 3": "concrete block semi full 300x450 mm longitudinal holes 18% mortar joint 12 mm",
			"Layer 4": "plaster lime and gypsum 15 mm"
		},
		{
			"Name": "wall in concrete blocks 250 mm with external polystyrene 100 mm",
			"Outside Layer": "plaster plastic for insulation 10 mm",
			"Layer 2": "expanded polystyrene sheets 20 kg/m3 100 mm",
			"Layer 3": "concrete block perforated 250x250 mm vertical holes 46% mortar joint 5 mm",
			"Layer 4": "plaster lime and gypsum 15 mm"
		}
	],
	"SCHEDULE:COMPACT": [
		{
			"Name": "Summer (Northern Hemisphere)",
			"Schedule_Type_Limits_Name": "Fraction",
			"Field_1": "Through: 31 Mar",
			"Field_2": "For: AllDays",
			"Field_3": "Until: 24:00",
			"Field_4": 0,
			"Field_5": "Through: 30 Sep",
			"Field_6": "For: AllDays",
			"Field_7": "Until: 24:00",
			"Field_8": 1,
			"Field_9": "Through: 31 Dec",
			"Field_10": "For: AllDays",
			"Field_11": "Until: 24:00",
			"Field_12": 0
		},
		{
			"Name": "Fictitious Cooling SP Sch",
			"Schedule_Type_Limits_Name": "Temperature",
			"Field_1": "Through: 31 Dec,",
			"Field_2": "For: Weekdays SummerDesignDay,",
			"Field_3": "Until: 5:00",
			"Field_4": 100,
			"Field_5": "Until: 19:00",
			"Field_6": 26,
			"Field_7": "Until: 24:00",
			"Field_8": 100,
			"Field_9": "For: Weekdays",
			"Field_10": "Until: 24:00",
			"Field_11": 100,
			"Field_12": "For: Holidays",
			"Field_13": "Until: 24:00",
			"Field_14": 100,
			"Field_15": "For: WinterDesignDay AllOtherDays",
			"Field_16": "Until: 24:00",
			"Field_17": 100
		},
		{
			"Name": "Fictitious Cooling Availability Sch",
			"Schedule_Type_Limits_Name": "Temperature",
			"Field_1": "Through: 31 Dec,",
			"Field_2": "For: Weekdays SummerDesignDay,",
			"Field_3": "Until: 5:00",
			"Field_4": 0,
			"Field_5": "Until: 19:00",
			"Field_6": 1,
			"Field_7": "Until: 24:00",
			"Field_8": 0,
			"Field_9": "For: Weekdays",
			"Field_10": "Until: 24:00",
			"Field_11": 0,
			"Field_12": "For: Holidays",
			"Field_13": "Until: 24:00",
			"Field_14": 0,
			"Field_15": "For: WinterDesignDay AllOtherDays",
			"Field_16": "Until: 24:00",
			"Field_17": 0
		},
		{
			"Name": "Default outdoor CO2 levels 400 ppm (Source: NOAA ESRL)",
			"Schedule_Type_Limits_Name": "Any Number",
			"Field_1": "Through: 12/31",
			"Field_2": "For: AllDays",
			"Field_3": "Until: 24:00",
			"Field_4": 400
		},
		{
			"Name": "Opening Area Fraction ENEA calibration",
			"Schedule_Type_Limits_Name": "Any Number",
			"Field_1": "Through: 08/14",
			"Field_2": "For: AllDays",
			"Field_3": "Until: 24:00",
			"Field_4": 0,
			"Field_5": "Through: 08/15",
			"Field_6": "For: AllDays",
			"Field_7": "Until: 21:00",
			"Field_8": 0,
			"Field_9": "Until: 24:00",
			"Field_10": 0.33,
			"Field_11": "Through: 08/19",
			"Field_12": "For: AllDays",
			"Field_13": "Until: 08:00",
			"Field_14": 0.33,
			"Field_15": "Until: 21:00",
			"Field_16": 0,
			"Field_17": "Until: 24:00",
			"Field_18": 0.33,
			"Field_19": "Through: 12/31",
			"Field_20": "For: AllDays",
			"Field_21": "Until: 24:00",
			"Field_22": 0
		},
		{
            "Name": "IHG_ENEA",
            "Schedule Type Limits Name": "Fraction",
            "Field_1": "Through: 31 Dec",
            "Field_2": "For: Weekdays",
            "Field_3": " Until: 08:00",
            "Field_4": 0.00,
            "Field_5": "Until: 09:00",
            "Field_6": 0.20,
            "Field_7": "Until: 11:00",
            "Field_8": 0.60,
            "Field_9": "Until: 13:00",
            "Field_10": 0.70,
            "Field_11": "Until: 14:00",
            "Field_12": 0.40,
            "Field_13": "Until: 17:00",
            "Field_14": 0.70,
            "Field_15": "Until: 18:00",
            "Field_16": 0.60,
            "Field_17": "Until: 19:00",
            "Field_18": 0.20,
            "Field_19": "Until: 24:00",
            "Field_20": 0.00,
            "Field_21": "For: Weekends",
            "Field_22": "Until: 24:00",
            "Field_23": 0.00,
            "Field_24": "For: Holidays",
            "Field_25": "Until: 24:00",
            "Field_26": 0.00,
            "Field_27": "For: WinterDesignDay",
            "Field_28": "Until: 08:00",
            "Field_29": 0.00,
            "Field_30": "Until: 09:00",
            "Field_31": 0.20,
            "Field_32": "Until: 11:00",
            "Field_33": 0.60,
            "Field_34": "Until: 13:00",
            "Field_35": 0.70,
            "Field_36": "Until: 14:00",
            "Field_37": 0.40,
            "Field_38": "Until: 17:00",
            "Field_39": 0.70,
            "Field_40": "Until: 18:00",
            "Field_41": 0.60,
            "Field_42": "Until: 19:00",
            "Field_43": 0.20,
            "Field_44": "Until: 24:00",
            "Field_45": 0.00,
            "Field_46": "For: SummerDesignDay",
            "Field_47": "Until: 08:00",
            "Field_48": 0.00,
            "Field_49": "Until: 09:00",
            "Field_50": 0.20,
            "Field_51": "Until: 11:00",
            "Field_52": 0.60,
            "Field_53": "Until: 13:00",
            "Field_54": 0.70,
            "Field_55": "Until: 14:00",
            "Field_56": 0.40,
            "Field_57": "Until: 17:00",
            "Field_58": 0.70,
            "Field_59": "Until: 18:00",
            "Field_60": 0.60,
            "Field_61": "Until: 19:00",
            "Field_62": 0.20,
            "Field_63": "Until: 24:00",
            "Field_64": 0.00,
            "Field_65": "For: AllOtherDays",
            "Field_66": "Until: 24:00",
            "Field_67": 0
        }
	]
}